<?xml version="1.0" encoding="utf-8"?>
<!-- Generator: Adobe Illustrator 16.0.3, SVG Export Plug-In . SVG Version: 6.00 Build 0)  -->
<!DOCTYPE svg PUBLIC "-//W3C//DTD SVG 1.1//EN" "http://www.w3.org/Graphics/SVG/1.1/DTD/svg11.dtd">
<svg version="1.1" id="Capa_1" xmlns="http://www.w3.org/2000/svg" xmlns:xlink="http://www.w3.org/1999/xlink" x="0px" y="0px"
	 width="142px" height="551px" viewBox="0 0 142 551" enable-background="new 0 0 142 551" xml:space="preserve">
<g id="logo_siembra" display="none">
	<path display="inline" fill="#FFFFFF" d="M-352.098-2567.991l-1.512,7.114c-8.39,1.004-13.57-1.112-15.534-6.357
		c-0.875-3.262-0.358-6.883,1.552-10.866c4.167-7.101,10.681-10.13,19.543-9.096l-1.617,7.677c-4.237-0.386-7.304,0.387-9.208,2.313
		c-1.904,1.926-2.481,4.084-1.736,6.474C-359.865-2568.346-357.028-2567.431-352.098-2567.991"/>
	<g display="inline">
		<path fill="#FD6B0C" d="M-320.991-2529.63c0.659-1.328,1.354-2.861,2.084-4.604c0.964,0.735,2.558,0.854,4.778,0.354
			c1.176-0.361,1.752-0.914,1.729-1.657c0.005-0.606-0.602-0.772-1.815-0.501c-1.77,0.093-3.081-0.263-3.927-1.067
			c-0.851-0.806-1.296-1.598-1.337-2.38c-0.213-2.267,0.453-4.271,1.99-6.013c2.899-2.855,6.517-3.539,10.857-2.049l-2.399,4.584
			c-3.223-0.549-4.889-0.125-4.991,1.264c0.014,0.667,0.437,0.971,1.271,0.914c0.833-0.059,1.801,0.02,2.912,0.239
			c1.108,0.217,1.872,0.718,2.289,1.494c0.529,1.465,0.593,2.799,0.198,4.01c-1.091,3.044-3.431,5-7.024,5.875
			C-316.959-2528.647-319.166-2528.801-320.991-2529.63"/>
		<path fill="#FD6B0C" d="M-296.99-2547.25c-1.529,6.255-2.898,12.161-4.109,17.721c-1.768,0.084-3.775,0.12-6.02,0.104
			c0.618-4.286,1.822-10.172,3.62-17.655C-302.061-2547.451-299.891-2547.507-296.99-2547.25"/>
		<path fill="#FD6B0C" d="M-289.5-2542.753l-0.536,2.568l4.749-0.146l-0.675,3.67c-0.982,0.084-2.611,0.163-4.879,0.233
			l-0.481,2.288c2.359,0.008,4.653,0.004,6.883-0.016c-0.224,2.12-0.464,3.671-0.72,4.652c-2.164,0.127-6.323,0.169-12.472,0.122
			c0.963-4.696,1.908-8.984,2.83-12.865l-1.833,0.176l0.697-4.39c5.986-1.299,11.229-1.822,15.728-1.57
			c0.084,0.502-0.704,2.198-2.364,5.088C-285.777-2542.965-288.089-2542.905-289.5-2542.753"/>
		<path fill="#FD6B0C" d="M-280.091-2541.955l0.752-4.474c3.877-1.12,6.767-1.62,8.667-1.498c0.566,1.309,1.068,2.65,1.51,4.023
			c1.037-1.316,2.048-2.579,3.03-3.775c3.17,0.055,5.029,0.133,5.57,0.232c-1.056,9.487-1.664,15.31-1.822,17.465
			c-1.312,0.467-3.307,0.884-5.987,1.256c0.331-2.598,0.758-5.761,1.286-9.486l-4.287,3.938c-0.583-1.173-1.357-2.507-2.32-4.002
			c-1.115,3.932-1.967,7.069-2.564,9.401l-5.463-0.979l3.516-12.102H-280.091z"/>
		<path fill="#FD6B0C" d="M-259.087-2540.402c0.441-2.198,0.707-3.698,0.796-4.504c2.344-1.687,5.106-2.604,8.28-2.745
			c3.974-0.058,6.181,1.255,6.623,3.938c0.355,1.861-0.598,3.571-2.852,5.133c1.768,1.085,2.497,2.334,2.193,3.737
			c-0.304,1.404-0.928,2.436-1.869,3.089c-0.502,0.395-1.025,0.708-1.567,0.939c-2.39,1.04-4.854,1.54-7.391,1.497
			c-0.841,0.005-2.281-0.052-4.321-0.171c0.392-2.596,1.221-6.488,2.484-11.674L-259.087-2540.402z M-253.991-2533.405
			c2.921,0.314,4.522-0.316,4.794-1.9c0.085-0.664-0.28-1.075-1.097-1.234c-0.837-0.192-1.902-0.085-3.182,0.324
			C-253.716-2535.193-253.887-2534.259-253.991-2533.405 M-252.754-2540.248c2.441,0.156,3.738-0.365,3.89-1.564
			c0.122-0.434-0.075-0.792-0.592-1.075c-0.513-0.278-1.437-0.19-2.763,0.275C-252.487-2541.867-252.667-2541.08-252.754-2540.248"
			/>
		<path fill="#FD6B0C" d="M-241.186-2541.269c-0.122-0.773-0.002-2.24,0.36-4.401c3.983-1.867,7.331-2.716,10.054-2.542
			c1.595,0.059,2.865,0.507,3.815,1.343c0.949,0.838,1.465,1.659,1.549,2.463c0.125,3.04-1.661,5.781-5.351,8.231
			c1.176,1.754,2.177,3.235,3,4.442l-4.673,3.323l-3.374-6.199c-0.896,3.457-1.631,5.625-2.21,6.509
			c-2.147-0.337-3.751-0.743-4.813-1.214c1.152-2.361,2.308-6.579,3.466-12.651L-241.186-2541.269z M-234.083-2543.212
			c-0.276,1.366-0.529,2.796-0.756,4.3c2.499-0.64,3.87-1.581,4.109-2.825c0.133-0.822-0.176-1.401-0.925-1.736
			C-232.13-2543.632-232.939-2543.545-234.083-2543.212"/>
		<path fill="#FD6B0C" d="M-220.494-2542.928l-2.614,0.29l1.166-3.565c2.995-1.233,6.154-1.894,9.479-1.984l0.862,18.38
			c-2.775,0.535-4.49,0.754-5.148,0.658l-0.025-3.837c-1.958,0.051-3.25,0.033-3.877-0.05c-1.072,2.155-2.086,3.754-3.041,4.806
			c-1.672-0.516-2.916-1.251-3.735-2.203C-225.837-2532.069-223.524-2536.236-220.494-2542.928 M-216.922-2541.538
			c-0.656,1.576-1.329,3.014-2.025,4.313c0.67,0.113,1.356,0.138,2.052,0.08C-216.83-2538.378-216.837-2539.845-216.922-2541.538"/>
		<path fill="#FFFFFF" d="M-325.875-2585.171c1.566,1.524,2.47,3.613,2.708,6.271c0.084,1.624-0.067,3.234-0.453,4.837
			c-2.866,9.469-8.707,14.082-17.518,13.837c-3.629-0.016-6.28-1.56-7.95-4.626c-0.736-1.821-0.978-3.809-0.725-5.969
			c0.294-2.345,1.077-4.735,2.352-7.176c1.524-2.652,3.25-4.701,5.181-6.148C-336.218-2588.773-330.749-2589.117-325.875-2585.171
			 M-341.473-2571.704c0.218,1.867,1.344,2.824,3.378,2.865c1.728,0.096,3.259-0.459,4.593-1.668
			c1.526-1.566,2.132-3.145,1.815-4.732c-0.456-1.993-1.587-2.969-3.397-2.926c-2.19,0.181-3.995,1.304-5.415,3.368
			C-341.183-2573.715-341.508-2572.685-341.473-2571.704"/>
		<path fill="#FFFFFF" d="M-319.634-2586.003l11.057-1.939c0.945,2.896,2.747,6.594,5.403,11.101
			c0.454-2.912,1.184-6.519,2.191-10.829c3.778,0.008,6.516,0.285,8.213,0.829c-2.07,9.701-3.898,18.302-5.487,25.807
			c-2.348,0.816-4.421,1.226-6.22,1.226c-1.728-3.63-3.953-7.854-6.682-12.671l-2.664,12.599c-4.082-0.387-6.693-0.858-7.825-1.416
			c1.11-4.504,2.492-10.591,4.143-18.265l-3.146-0.03L-319.634-2586.003z"/>
		<path fill="#FFFFFF" d="M-268.108-2587.9c-0.622,3.289-1.489,6.186-2.599,8.696c-1.597-0.174-3.932-0.222-7.008-0.144
			l-3.986,19.876c-0.909,0.363-3.539-0.144-7.888-1.523l4.152-18.345c-2.873,0.022-5.183,0.087-6.923,0.2
			c0.138-2.748,0.507-5.4,1.103-7.952C-283.412-2587.7-275.695-2587.971-268.108-2587.9"/>
		<path fill="#FFFFFF" d="M-256.223-2587.083c-2.273,9.296-4.308,18.071-6.105,26.332c-2.628,0.126-5.612,0.178-8.949,0.155
			c0.917-6.368,2.711-15.113,5.383-26.234C-263.762-2587.381-260.537-2587.467-256.223-2587.083"/>
		<path fill="#FFFFFF" d="M-245.554-2561.624c-6.44,1.356-10.363-0.693-11.759-6.157c-1.014-5.378,0.958-10.545,5.917-15.502
			c4.979-4.106,11.22-5.495,18.723-4.164c-0.426,3.095-1.034,5.85-1.824,8.264c-1.533-0.533-3.897-0.664-7.093-0.396
			c-3.235,0.655-5.474,2.064-6.71,4.228c-1.435,3.523-1.051,5.87,1.153,7.047c1.887,0.363,2.863,0.17,2.924-0.576
			c0.441-2.177,0.706-3.981,0.787-5.413c4.079,0.048,6.587,0.006,7.531-0.126c-0.573,6.474-1.779,11.992-3.619,16.552
			c-2.965,0.063-5.323-0.18-7.08-0.724C-246.17-2559.802-245.821-2560.812-245.554-2561.624"/>
		<path fill="#FFFFFF" d="M-209.847-2585.171c1.566,1.524,2.467,3.613,2.707,6.271c0.083,1.624-0.067,3.234-0.449,4.837
			c-2.868,9.469-8.71,14.082-17.52,13.837c-3.629-0.016-6.282-1.56-7.952-4.626c-0.736-1.821-0.974-3.809-0.726-5.969
			c0.296-2.345,1.081-4.735,2.351-7.176c1.526-2.652,3.252-4.701,5.18-6.148C-220.19-2588.773-214.723-2589.117-209.847-2585.171
			 M-225.447-2571.704c0.218,1.867,1.344,2.824,3.378,2.865c1.728,0.096,3.257-0.459,4.594-1.668
			c1.524-1.566,2.129-3.145,1.815-4.732c-0.454-1.993-1.588-2.969-3.399-2.926c-2.188,0.181-3.993,1.304-5.415,3.368
			C-225.157-2573.715-225.482-2572.685-225.447-2571.704"/>
		<path fill="#FAC602" d="M-176-2708.734c0,19.804-16.054,35.854-35.854,35.854c-19.802,0-35.853-16.051-35.853-35.854
			c0-19.802,16.051-35.852,35.853-35.852C-192.054-2744.586-176-2728.537-176-2708.734"/>
		<path fill="#DD883C" d="M-211.854-2681.948c0,34.597-28.043,62.64-62.641,62.64c-34.594,0-62.639-28.043-62.639-62.64
			c0-34.596,28.045-62.638,62.639-62.638C-239.898-2744.586-211.854-2716.544-211.854-2681.948"/>
		<path fill="#F03C7D" d="M-308.507-2628.747c0,19.804-16.053,35.853-35.856,35.853c-19.799,0-35.851-16.048-35.851-35.853
			c0-19.802,16.052-35.854,35.851-35.854C-324.56-2664.601-308.507-2648.549-308.507-2628.747"/>
		<path fill="#FFFFFF" d="M-193.127-2649.771c0,29.564-23.966,53.529-53.529,53.529c-29.563,0-53.529-23.965-53.529-53.529
			c0-29.563,23.966-53.531,53.529-53.531C-217.093-2703.302-193.127-2679.335-193.127-2649.771"/>
		<path fill="#04AAA0" d="M-306.431-2700.117c0,40.751-33.034,73.789-73.784,73.789c-40.753,0-73.786-33.038-73.786-73.789
			c0-40.75,33.033-73.786,73.786-73.786C-339.465-2773.903-306.431-2740.868-306.431-2700.117"/>
		<path fill="#0A3161" d="M-303.917-2676.75c0-5.724-0.965-10.83-2.865-15.171c-1.875-4.277-4.386-8.027-7.464-11.149
			c-3.023-3.057-6.506-5.645-10.356-7.689c-3.668-1.951-7.474-3.603-11.321-4.911c-3.74-1.27-7.451-2.367-11.031-3.265
			c-3.57-0.891-6.581-1.67-9.208-2.38c-1.451-0.392-2.721-0.786-3.801-1.179c1.521-0.689,3.45-1.31,5.757-1.861
			c3.012-0.717,6.508-1.294,10.39-1.71c3.903-0.418,8.013-0.632,12.215-0.632c9.65,0,17.391,0.875,23.008,2.6
			c4.975,1.529,7.025,3.279,7.292,4.419c0.544,2.32,1.538,3.943,3.022,4.961c1.711,1.177,4.544,1.793,8.304-1.965l0.054-0.054
			c2.406-2.494,4.26-5.335,5.518-8.448c1.26-3.135,1.86-6.671,1.777-10.414c0-4.702-4.903-7.089-6.514-7.876
			c-3.07-1.494-6.819-2.755-11.464-3.862c-4.428-1.049-9.4-1.904-14.779-2.539c-5.402-0.637-10.726-0.93-15.851-0.848
			c-8.782,0.15-16.665,1.035-23.435,2.622c-6.851,1.608-12.717,3.727-17.433,6.298c-4.898,2.674-8.723,5.772-11.367,9.21
			c-2.814,3.668-4.335,7.508-4.522,11.444c-0.19,4.44,0.994,8.316,3.518,11.522c2.256,2.86,5.287,5.295,8.998,7.235
			c3.422,1.792,7.362,3.361,11.713,4.667c4.17,1.256,8.504,2.435,12.88,3.5c4.202,1.026,8.416,2.132,12.514,3.289
			c3.855,1.093,7.31,2.382,10.273,3.828c2.667,1.305,4.784,2.862,6.29,4.626c1.2,1.412,1.715,3.071,1.619,5.21
			c-0.189,4.009-1.271,7.668-3.312,11.188c-2.131,3.675-4.994,7.133-8.503,10.279c-3.6,3.224-7.814,6.157-12.524,8.719
			c-4.794,2.605-9.855,4.845-15.046,6.656c-5.189,1.813-10.508,3.228-15.808,4.204c-5.255,0.967-10.289,1.459-14.963,1.459
			c-1.396,0-3.272-0.089-5.576-0.262c-2.211-0.167-4.564-0.507-6.994-1.016c-2.366-0.493-4.733-1.209-7.046-2.132
			c-2.131-0.854-4.014-1.952-5.592-3.264c-1.414-1.176-2.453-2.58-3.177-4.292c-0.662-1.571-0.811-3.57-0.441-5.943
			c0.313-1.604,1.286-3.415,2.884-5.381c1.813-2.229,4.218-4.38,7.149-6.398c3.01-2.071,6.525-3.927,10.439-5.516
			c3.884-1.574,8.063-2.676,12.461-3.286c2.316-0.338,5.306-0.581,8.886-0.723c3.447-0.13,6.947,0.09,10.399,0.659
			c3.301,0.542,6.322,1.51,8.979,2.868c2.117,1.085,3.481,2.582,4.287,4.712c0.758,2.211,2.068,3.399,3.04,4.008
			c1.352,0.847,2.758,1.228,4.175,1.123c1.728-0.126,3.26-0.975,4.316-2.381c0.678-0.905,1.438-2.442,1.197-4.622l-0.018-0.152
			c-0.928-6.328-3.244-11.427-6.885-15.158c-3.465-3.549-7.593-6.175-12.272-7.804c-4.459-1.551-9.215-2.418-14.131-2.578
			c-4.684-0.146-9.052-0.034-12.885,0.339c-8.381,0.608-15.931,2.184-22.445,4.688c-6.554,2.523-12.167,5.713-16.689,9.488
			c-4.605,3.842-8.191,8.255-10.665,13.114c-2.486,4.9-3.833,9.977-3.999,15.123c-0.164,6.556,0.972,12.357,3.378,17.246
			c2.422,4.929,6.011,9.051,10.671,12.255c4.487,3.086,9.937,5.408,16.2,6.904c6.071,1.449,12.904,2.223,20.317,2.298
			c0.36,0.005,0.718,0.006,1.077,0.006c7.536,0,14.88-0.75,21.84-2.227c7.264-1.545,14.171-3.746,20.53-6.546
			c6.384-2.812,12.258-6.251,17.456-10.222c5.213-3.989,9.769-8.472,13.54-13.318c3.815-4.905,6.8-10.244,8.868-15.869
			C-304.978-2664.712-303.917-2670.673-303.917-2676.75"/>
		<path fill="#0A3161" d="M-244.145-2681.768l0.187-0.589c1.651-5.197-3.655-8.068-7.955-8.068c-1.499,0-2.886,0.328-4.132,0.982
			c-3.743,1.813-6.268,6.746-11.191,16.37c-5.884,11.504-14.372,28.096-24.798,36.063c0.46-1.411,1.126-3.286,2.091-5.772
			c0.153-0.395,0.241-0.619,0.302-0.79l11.927-29.717l0.063-0.152l0.046-0.155c0.732-2.297,0.633-4.472-0.277-6.127
			c-1.038-1.883-3.036-2.917-5.629-2.917c-3.516,0-6.402,1.243-8.578,3.694c-1.766,1.987-2.639,4.378-3.372,6.667l-10.625,27.688
			c-0.914,2.242-2.269,6.213-3.111,10.114c-1.257,5.812-1.103,10.086,0.453,12.705c1.209,2.026,3.253,3.095,5.922,3.095
			c4.143,0,9.572-2.518,16.771-7.828c-0.67,4.244-0.165,6.815,1.499,8.151c1.008,0.89,2.532,1.361,4.423,1.361
			c3.081,0,8.341-1.301,10.196-4.884l0.035-0.068l0.034-0.069c0.593-1.238,1.058-2.975,1.825-5.855
			c2.496-9.35,7.687-28.807,23.531-53.34L-244.145-2681.768z"/>
		<path fill="#0A3161" d="M-211.615-2670.478c-1.321-2.303-4.202-3.789-7.342-3.789c-3.93,0-8.528,1.738-13.333,5.035
			c0.061-1.6-0.488-2.928-1.619-3.852c-1.123-0.917-2.751-1.382-4.847-1.382c-3.295,0-5.602,1.235-7.486,4l-0.297,0.434
			l-0.192,0.459c-3.033,7.255-4.584,12.156-6.381,17.832c-0.197,0.627-0.396,1.259-0.603,1.906
			c-1.795,5.645-4.492,12.394-6.274,16.86c-1.075,2.684-1.785,4.459-2.102,5.461c-0.614,1.931-0.6,3.779,0.039,5.204
			c0.87,1.937,2.846,3.002,5.559,3.002c1.65,0,3.404-0.689,4.932-1.94c0.976-0.798,1.865-1.83,2.646-3.062
			c1.141-1.803,1.798-3.635,2.049-4.41c0.346-0.968,0.68-1.94,1.004-2.882c2.304-6.682,4.481-12.996,10.15-19.643l0.096-0.112
			l0.086-0.117c0.789-1.025,1.959-2.322,3.297-3.668c-0.245,0.512-0.459,1.035-0.627,1.571c-1.113,3.501,0.413,6.043,3.631,6.043
			c2.785,0,5.943-2.331,10.908-8.04c2.057-2.365,5.819-7.022,6.881-9.486C-210.627-2666.934-210.688-2668.86-211.615-2670.478"/>
	</g>
</g>
<g id="logo_limpia" display="none">
	<path display="inline" fill="#04AAA0" d="M-288.841-2534.193c2.105-0.05,4.311-0.072,6.623-0.072
		c-0.551,1.879-1.107,3.513-1.667,4.908c-3.141,0.218-6.955,0.251-11.443,0.103c1.479-6.384,2.454-10.826,2.929-13.325
		c-0.397,0.014-0.952,0.071-1.673,0.17l0.882-4.244c2.32-0.878,4.75-1.258,7.287-1.128
		C-286.06-2546.992-287.039-2542.463-288.841-2534.193"/>
	<path display="inline" fill="#04AAA0" d="M-271.434-2547.185c-1.528,6.257-2.899,12.163-4.11,17.722
		c-1.769,0.083-3.775,0.121-6.022,0.106c0.619-4.288,1.825-10.174,3.624-17.657
		C-276.506-2547.384-274.336-2547.442-271.434-2547.185"/>
	<path display="inline" fill="#04AAA0" d="M-271.136-2541.889l0.747-4.477c3.876-1.118,6.768-1.618,8.67-1.496
		c0.564,1.31,1.067,2.65,1.51,4.026c1.035-1.318,2.044-2.578,3.029-3.778c3.174,0.056,5.029,0.135,5.57,0.232
		c-1.055,9.488-1.661,15.312-1.821,17.465c-1.313,0.467-3.309,0.883-5.986,1.258c0.327-2.601,0.757-5.761,1.287-9.488l-4.29,3.938
		c-0.581-1.173-1.355-2.505-2.321-4.004c-1.114,3.936-1.968,7.07-2.563,9.402l-5.462-0.98l3.517-12.101H-271.136z"/>
	<path display="inline" fill="#04AAA0" d="M-249.268-2545.165c4.833-2.371,8.767-3.234,11.797-2.584
		c2.446,0.775,3.505,2.773,3.175,6c-0.802,3.864-3.035,6.083-6.691,6.659c-0.925,0.148-1.807,0.276-2.648,0.39
		c-0.628,2.879-1.141,4.813-1.53,5.803c-2.57-0.189-4.3-0.388-5.189-0.601c1.27-4.782,2.147-8.728,2.627-11.839l-2.161,0.539
		L-249.268-2545.165z M-242.773-2538.845c2.231-0.07,3.506-0.726,3.833-1.963c0.193-0.847,0.053-1.474-0.424-1.877
		c-0.477-0.527-1.353-0.581-2.633-0.164C-242.28-2541.51-242.538-2540.177-242.773-2538.845"/>
	<path display="inline" fill="#04AAA0" d="M-225.067-2547.185c-1.532,6.257-2.9,12.163-4.11,17.722
		c-1.77,0.083-3.778,0.121-6.021,0.106c0.617-4.288,1.824-10.174,3.622-17.657C-230.142-2547.384-227.972-2547.442-225.067-2547.185
		"/>
	<path display="inline" fill="#04AAA0" d="M-220.493-2542.861l-2.613,0.288l1.165-3.562c2.993-1.233,6.153-1.896,9.48-1.986
		l0.863,18.382c-2.779,0.534-4.495,0.751-5.151,0.657l-0.025-3.84c-1.96,0.052-3.25,0.033-3.876-0.049
		c-1.074,2.157-2.086,3.756-3.044,4.806c-1.67-0.517-2.915-1.251-3.733-2.203C-225.836-2532.005-223.525-2536.168-220.493-2542.861
		 M-216.922-2541.471c-0.654,1.576-1.329,3.014-2.025,4.313c0.673,0.114,1.358,0.137,2.053,0.078
		C-216.829-2538.314-216.837-2539.778-216.922-2541.471"/>
	<path display="inline" fill="#FFFFFF" d="M-352.096-2567.923l-1.513,7.112c-8.391,1.006-13.57-1.113-15.533-6.356
		c-0.875-3.26-0.357-6.882,1.553-10.867c4.168-7.101,10.682-10.13,19.542-9.095l-1.616,7.677c-4.239-0.383-7.308,0.388-9.209,2.313
		c-1.904,1.926-2.482,4.083-1.737,6.473C-359.866-2568.279-357.027-2567.364-352.096-2567.923"/>
	<path display="inline" fill="#FFFFFF" d="M-325.872-2585.105c1.564,1.523,2.466,3.613,2.706,6.271
		c0.084,1.624-0.067,3.237-0.453,4.838c-2.865,9.468-8.705,14.08-17.517,13.837c-3.63-0.016-6.28-1.558-7.951-4.626
		c-0.735-1.821-0.975-3.808-0.725-5.968c0.293-2.345,1.078-4.738,2.35-7.175c1.527-2.651,3.255-4.701,5.182-6.149
		C-336.215-2588.708-330.747-2589.05-325.872-2585.105 M-341.469-2571.639c0.215,1.871,1.34,2.825,3.375,2.867
		c1.728,0.097,3.259-0.46,4.598-1.669c1.522-1.566,2.128-3.142,1.812-4.731c-0.455-1.993-1.586-2.968-3.399-2.926
		c-2.188,0.183-3.993,1.307-5.411,3.369C-341.181-2573.648-341.508-2572.618-341.469-2571.639"/>
	<path display="inline" fill="#FFFFFF" d="M-319.632-2585.934l11.057-1.941c0.944,2.895,2.745,6.595,5.401,11.1
		c0.455-2.911,1.186-6.518,2.19-10.827c3.778,0.01,6.516,0.285,8.215,0.829c-2.07,9.699-3.899,18.302-5.485,25.805
		c-2.35,0.818-4.422,1.228-6.221,1.228c-1.728-3.629-3.953-7.855-6.682-12.673l-2.661,12.596c-4.087-0.383-6.696-0.855-7.828-1.413
		c1.113-4.504,2.493-10.591,4.141-18.263l-3.146-0.032L-319.632-2585.934z"/>
	<path display="inline" fill="#FFFFFF" d="M-268.107-2587.835c-0.622,3.289-1.488,6.187-2.602,8.697
		c-1.592-0.174-3.928-0.223-7.005-0.145l-3.985,19.878c-0.912,0.363-3.538-0.145-7.89-1.522l4.155-18.346
		c-2.876,0.018-5.185,0.087-6.927,0.198c0.144-2.747,0.51-5.398,1.103-7.951C-283.412-2587.634-275.693-2587.903-268.107-2587.835"
		/>
	<path display="inline" fill="#FFFFFF" d="M-256.221-2587.017c-2.275,9.297-4.31,18.072-6.106,26.33
		c-2.628,0.13-5.613,0.18-8.946,0.158c0.915-6.369,2.708-15.116,5.381-26.234C-263.761-2587.316-260.536-2587.399-256.221-2587.017"
		/>
	<path display="inline" fill="#FFFFFF" d="M-245.555-2561.558c-6.439,1.357-10.358-0.695-11.758-6.157
		c-1.013-5.376,0.959-10.544,5.919-15.502c4.978-4.107,11.217-5.494,18.721-4.164c-0.424,3.098-1.035,5.851-1.824,8.265
		c-1.532-0.532-3.896-0.665-7.091-0.4c-3.237,0.658-5.475,2.067-6.711,4.229c-1.435,3.525-1.05,5.875,1.153,7.049
		c1.887,0.363,2.86,0.173,2.926-0.576c0.441-2.175,0.701-3.98,0.787-5.417c4.076,0.051,6.586,0.006,7.532-0.125
		c-0.574,6.476-1.778,11.994-3.62,16.554c-2.963,0.064-5.325-0.179-7.08-0.723C-246.171-2559.736-245.82-2560.746-245.555-2561.558"
		/>
	<path display="inline" fill="#FFFFFF" d="M-209.848-2585.105c1.567,1.523,2.47,3.613,2.707,6.271
		c0.085,1.624-0.065,3.237-0.449,4.838c-2.87,9.468-8.709,14.08-17.518,13.837c-3.629-0.016-6.281-1.558-7.954-4.626
		c-0.734-1.821-0.974-3.808-0.725-5.968c0.296-2.345,1.08-4.738,2.351-7.175c1.525-2.651,3.251-4.701,5.182-6.149
		C-220.189-2588.708-214.721-2589.05-209.848-2585.105 M-225.445-2571.639c0.215,1.871,1.343,2.825,3.378,2.867
		c1.726,0.097,3.256-0.46,4.593-1.669c1.525-1.566,2.131-3.142,1.815-4.731c-0.454-1.993-1.586-2.968-3.398-2.926
		c-2.188,0.183-3.993,1.307-5.414,3.369C-225.155-2573.648-225.479-2572.618-225.445-2571.639"/>
	<path display="inline" fill="#FAC602" d="M-176-2708.667c0,19.803-16.052,35.854-35.854,35.854
		c-19.804,0-35.854-16.05-35.854-35.854c0-19.801,16.05-35.854,35.854-35.854C-192.052-2744.52-176-2728.467-176-2708.667"/>
	<path display="inline" fill="#DD883C" d="M-211.854-2681.881c0,34.596-28.045,62.638-62.639,62.638
		c-34.595,0-62.639-28.042-62.639-62.638c0-34.595,28.044-62.639,62.639-62.639C-239.9-2744.52-211.854-2716.476-211.854-2681.881"
		/>
	<path display="inline" fill="#F03C7D" d="M-308.508-2628.681c0,19.803-16.05,35.856-35.853,35.856
		c-19.801,0-35.853-16.053-35.853-35.856c0-19.802,16.052-35.85,35.853-35.85C-324.558-2664.531-308.508-2648.483-308.508-2628.681"
		/>
	<path display="inline" fill="#FFFFFF" d="M-193.128-2649.705c0,29.563-23.962,53.528-53.527,53.528s-53.53-23.965-53.53-53.528
		c0-29.564,23.965-53.528,53.53-53.528S-193.128-2679.269-193.128-2649.705"/>
	<path display="inline" fill="#04AAA0" d="M-306.43-2700.049c0,40.749-33.032,73.786-73.784,73.786
		c-40.751,0-73.787-33.037-73.787-73.786c0-40.748,33.036-73.786,73.787-73.786C-339.462-2773.835-306.43-2740.797-306.43-2700.049"
		/>
	<path display="inline" fill="#0A3161" d="M-303.917-2676.683c0-5.722-0.964-10.829-2.865-15.17
		c-1.874-4.277-4.386-8.027-7.462-11.149c-3.024-3.058-6.506-5.646-10.358-7.691c-3.667-1.949-7.472-3.601-11.319-4.91
		c-3.741-1.271-7.454-2.369-11.032-3.265c-3.571-0.893-6.581-1.67-9.208-2.382c-1.449-0.393-2.722-0.785-3.8-1.178
		c1.522-0.688,3.453-1.31,5.757-1.86c3.013-0.72,6.506-1.295,10.389-1.712c3.903-0.417,8.011-0.631,12.216-0.631
		c9.652,0,17.392,0.874,23.007,2.597c4.973,1.531,7.028,3.281,7.292,4.422c0.545,2.32,1.538,3.943,3.022,4.961
		c1.71,1.178,4.544,1.791,8.304-1.963l0.054-0.055c2.406-2.494,4.261-5.337,5.517-8.447c1.26-3.136,1.86-6.672,1.777-10.416
		c0-4.7-4.903-7.091-6.514-7.875c-3.072-1.494-6.819-2.757-11.464-3.861c-4.428-1.052-9.404-1.904-14.782-2.541
		c-5.402-0.634-10.722-0.93-15.848-0.846c-8.782,0.15-16.667,1.033-23.435,2.62c-6.853,1.608-12.717,3.727-17.434,6.299
		c-4.897,2.675-8.722,5.773-11.364,9.21c-2.817,3.667-4.337,7.511-4.523,11.443c-0.191,4.44,0.993,8.316,3.517,11.522
		c2.256,2.861,5.285,5.294,8.998,7.234c3.423,1.792,7.363,3.363,11.711,4.668c4.17,1.255,8.505,2.435,12.881,3.5
		c4.204,1.026,8.413,2.132,12.514,3.289c3.854,1.093,7.312,2.383,10.271,3.829c2.669,1.304,4.786,2.861,6.291,4.624
		c1.203,1.415,1.717,3.073,1.621,5.213c-0.187,4.006-1.27,7.668-3.313,11.186c-2.131,3.674-4.993,7.133-8.502,10.281
		c-3.601,3.223-7.815,6.155-12.526,8.717c-4.794,2.604-9.854,4.845-15.044,6.659c-5.191,1.81-10.509,3.224-15.808,4.202
		c-5.255,0.968-10.291,1.458-14.961,1.458c-1.397,0-3.275-0.09-5.578-0.261c-2.212-0.167-4.563-0.509-6.995-1.017
		c-2.362-0.492-4.733-1.212-7.044-2.134c-2.133-0.854-4.015-1.951-5.592-3.261c-1.416-1.177-2.457-2.58-3.178-4.293
		c-0.662-1.572-0.813-3.571-0.442-5.942c0.315-1.606,1.286-3.417,2.885-5.383c1.814-2.227,4.218-4.379,7.148-6.395
		c3.01-2.075,6.523-3.931,10.44-5.518c3.883-1.575,8.066-2.677,12.461-3.286c2.315-0.34,5.305-0.583,8.885-0.725
		c3.446-0.129,6.946,0.089,10.4,0.657c3.3,0.548,6.321,1.511,8.977,2.871c2.117,1.084,3.482,2.583,4.289,4.712
		c0.757,2.211,2.067,3.398,3.038,4.007c1.353,0.848,2.758,1.228,4.175,1.122c1.727-0.125,3.261-0.972,4.316-2.382
		c0.678-0.904,1.437-2.438,1.198-4.62l-0.021-0.153c-0.927-6.328-3.244-11.425-6.883-15.157c-3.465-3.547-7.595-6.173-12.274-7.802
		c-4.459-1.552-9.212-2.42-14.131-2.58c-4.684-0.148-9.052-0.035-12.886,0.339c-8.377,0.608-15.927,2.184-22.441,4.689
		c-6.556,2.521-12.169,5.711-16.689,9.487c-4.604,3.844-8.193,8.254-10.665,13.113c-2.486,4.901-3.833,9.977-4.001,15.125
		c-0.162,6.554,0.974,12.356,3.378,17.245c2.424,4.93,6.014,9.052,10.674,12.256c4.484,3.084,9.936,5.406,16.197,6.903
		c6.072,1.449,12.907,2.223,20.318,2.298c0.36,0.005,0.718,0.006,1.078,0.006c7.536,0,14.877-0.749,21.839-2.225
		c7.265-1.547,14.173-3.747,20.531-6.547c6.381-2.812,12.257-6.252,17.454-10.224c5.213-3.988,9.77-8.469,13.539-13.316
		c3.815-4.906,6.799-10.246,8.87-15.87C-304.979-2664.644-303.917-2670.607-303.917-2676.683"/>
	<path display="inline" fill="#0A3161" d="M-244.146-2681.702l0.19-0.588c1.648-5.194-3.66-8.069-7.958-8.069
		c-1.496,0-2.884,0.33-4.13,0.983c-3.745,1.814-6.269,6.747-11.191,16.371c-5.886,11.505-14.371,28.098-24.797,36.064
		c0.458-1.415,1.125-3.288,2.089-5.774c0.153-0.395,0.24-0.619,0.301-0.79l11.928-29.718l0.062-0.153l0.048-0.153
		c0.732-2.298,0.633-4.473-0.277-6.129c-1.038-1.879-3.036-2.914-5.629-2.914c-3.517,0-6.405,1.241-8.577,3.69
		c-1.769,1.991-2.643,4.381-3.373,6.668l-10.625,27.689c-0.913,2.243-2.267,6.212-3.11,10.115
		c-1.257,5.812-1.104,10.086,0.453,12.702c1.208,2.028,3.252,3.098,5.919,3.098c4.145,0,9.574-2.518,16.772-7.829
		c-0.67,4.246-0.164,6.813,1.5,8.153c1.008,0.887,2.532,1.358,4.421,1.358c3.082,0,8.342-1.301,10.197-4.883l0.034-0.068
		l0.034-0.071c0.595-1.235,1.058-2.974,1.826-5.854c2.494-9.351,7.684-28.806,23.53-53.34L-244.146-2681.702z"/>
	<path display="inline" fill="#0A3161" d="M-211.616-2670.41c-1.32-2.3-4.202-3.789-7.34-3.789c-3.931,0-8.53,1.74-13.335,5.037
		c0.063-1.602-0.486-2.931-1.619-3.855c-1.122-0.917-2.751-1.38-4.847-1.38c-3.293,0-5.603,1.235-7.486,3.999l-0.296,0.434
		l-0.195,0.458c-3.032,7.256-4.58,12.158-6.376,17.833c-0.198,0.625-0.399,1.257-0.606,1.904c-1.792,5.646-4.492,12.394-6.274,16.86
		c-1.073,2.685-1.784,4.46-2.1,5.459c-0.615,1.932-0.602,3.781,0.039,5.206c0.869,1.937,2.845,3,5.557,3
		c1.653,0,3.406-0.688,4.934-1.939c0.974-0.799,1.867-1.829,2.643-3.059c1.141-1.804,1.799-3.635,2.052-4.412
		c0.343-0.968,0.679-1.939,1.005-2.884c2.303-6.681,4.479-12.994,10.149-19.64l0.095-0.113l0.089-0.116
		c0.787-1.027,1.957-2.324,3.293-3.669c-0.243,0.512-0.457,1.037-0.626,1.57c-1.114,3.504,0.415,6.045,3.63,6.045
		c2.786,0,5.945-2.331,10.909-8.041c2.058-2.365,5.819-7.023,6.88-9.485C-210.628-2666.868-210.689-2668.794-211.616-2670.41"/>
</g>
<g id="logo_aprende" display="none">
	<path display="inline" fill="#F03C7D" d="M-322.331-2542.932l-2.612,0.291l1.165-3.563c2.992-1.235,6.153-1.896,9.481-1.985
		l0.861,18.381c-2.776,0.533-4.491,0.751-5.146,0.657l-0.029-3.839c-1.958,0.053-3.249,0.036-3.874-0.049
		c-1.074,2.155-2.088,3.757-3.042,4.808c-1.671-0.52-2.917-1.25-3.735-2.205C-327.673-2532.073-325.363-2536.238-322.331-2542.932
		 M-318.758-2541.539c-0.656,1.576-1.331,3.013-2.028,4.312c0.675,0.113,1.36,0.139,2.056,0.079
		C-318.666-2538.381-318.673-2539.848-318.758-2541.539"/>
	<path display="inline" fill="#F03C7D" d="M-310.52-2545.232c4.832-2.371,8.765-3.234,11.793-2.584
		c2.448,0.771,3.508,2.773,3.179,6.002c-0.805,3.863-3.037,6.082-6.692,6.655c-0.928,0.147-1.809,0.279-2.647,0.39
		c-0.631,2.88-1.141,4.813-1.529,5.802c-2.572-0.189-4.301-0.388-5.191-0.599c1.271-4.781,2.145-8.728,2.625-11.839l-2.158,0.535
		L-310.52-2545.232z M-304.026-2538.914c2.23-0.07,3.509-0.724,3.832-1.962c0.193-0.847,0.053-1.474-0.424-1.879
		c-0.474-0.524-1.352-0.579-2.633-0.163C-303.533-2541.58-303.791-2540.248-304.026-2538.914"/>
	<path display="inline" fill="#F03C7D" d="M-294.144-2541.271c-0.121-0.771-0.003-2.236,0.36-4.399
		c3.98-1.866,7.332-2.714,10.053-2.542c1.594,0.056,2.866,0.505,3.814,1.343c0.949,0.837,1.467,1.658,1.551,2.462
		c0.122,3.04-1.662,5.784-5.351,8.23c1.175,1.755,2.176,3.237,2.999,4.441l-4.673,3.325l-3.375-6.199
		c-0.893,3.455-1.631,5.624-2.208,6.512c-2.146-0.341-3.75-0.745-4.813-1.217c1.151-2.363,2.308-6.578,3.465-12.65
		L-294.144-2541.271z M-287.042-2543.214c-0.277,1.366-0.53,2.799-0.754,4.303c2.498-0.644,3.869-1.583,4.108-2.827
		c0.13-0.823-0.177-1.402-0.925-1.734C-285.087-2543.633-285.896-2543.546-287.042-2543.214"/>
	<path display="inline" fill="#F03C7D" d="M-270.539-2542.755l-0.534,2.569l4.749-0.146l-0.677,3.672
		c-0.983,0.083-2.609,0.159-4.876,0.23l-0.481,2.288c2.358,0.009,4.652,0.005,6.882-0.012c-0.225,2.116-0.464,3.667-0.72,4.65
		c-2.165,0.129-6.322,0.169-12.475,0.121c0.964-4.696,1.91-8.983,2.832-12.863l-1.834,0.177l0.698-4.389
		c5.984-1.301,11.229-1.824,15.727-1.575c0.084,0.502-0.704,2.199-2.364,5.09C-266.816-2542.968-269.125-2542.907-270.539-2542.755"
		/>
	<path display="inline" fill="#F03C7D" d="M-260.356-2546.525l7.439-1.305c0.634,1.949,1.847,4.438,3.636,7.467
		c0.305-1.957,0.798-4.384,1.474-7.284c2.542,0.005,4.384,0.19,5.528,0.56c-1.394,6.527-2.624,12.314-3.693,17.364
		c-1.582,0.552-2.977,0.825-4.185,0.825c-1.163-2.443-2.662-5.286-4.498-8.527l-1.792,8.479c-2.749-0.26-4.504-0.576-5.267-0.954
		c0.748-3.029,1.677-7.127,2.789-12.29l-2.119-0.021L-260.356-2546.525z"/>
	<path display="inline" fill="#F03C7D" d="M-241.735-2545.295c2.502-1.639,5.353-2.44,8.549-2.407
		c2.397-0.024,4.286,0.715,5.663,2.215c1.372,1.5,1.747,3.916,1.122,7.236c-0.557,2.203-1.67,4.084-3.344,5.638
		c-1.67,1.555-3.886,2.488-6.637,2.795c-2.752,0.31-4.745,0.306-5.981-0.01c0.41-2.439,1.223-6.519,2.442-12.242l-2.209,0.976
		C-242.179-2541.809-242.047-2543.212-241.735-2545.295 M-236.836-2534.657c1.631-0.042,2.961-0.413,3.982-1.108
		c1.013-0.71,1.579-1.79,1.701-3.234c0.217-2.977-1.168-4.223-4.15-3.733C-235.743-2540.226-236.253-2537.532-236.836-2534.657"/>
	<path display="inline" fill="#F03C7D" d="M-217.297-2542.755l-0.534,2.569l4.749-0.146l-0.679,3.672
		c-0.981,0.083-2.606,0.159-4.875,0.23l-0.479,2.288c2.357,0.009,4.652,0.005,6.882-0.012c-0.227,2.116-0.468,3.667-0.722,4.65
		c-2.164,0.129-6.322,0.169-12.472,0.121c0.965-4.696,1.907-8.983,2.83-12.863l-1.835,0.177l0.698-4.389
		c5.987-1.301,11.231-1.824,15.731-1.575c0.083,0.502-0.706,2.199-2.366,5.09C-213.576-2542.968-215.886-2542.907-217.297-2542.755"
		/>
	<path display="inline" fill="#FFFFFF" d="M-352.097-2567.993l-1.51,7.112c-8.391,1.008-13.57-1.11-15.536-6.357
		c-0.872-3.259-0.356-6.879,1.554-10.867c4.167-7.097,10.682-10.13,19.543-9.095l-1.617,7.677c-4.239-0.384-7.307,0.389-9.211,2.315
		c-1.9,1.927-2.479,4.083-1.734,6.473C-359.865-2568.348-357.027-2567.433-352.097-2567.993"/>
	<path display="inline" fill="#FFFFFF" d="M-325.872-2585.173c1.566,1.523,2.468,3.615,2.705,6.271
		c0.084,1.624-0.064,3.236-0.45,4.836c-2.869,9.471-8.708,14.081-17.517,13.837c-3.629-0.014-6.282-1.556-7.95-4.626
		c-0.738-1.819-0.976-3.808-0.727-5.968c0.296-2.344,1.077-4.733,2.352-7.174c1.524-2.652,3.251-4.699,5.181-6.149
		C-336.214-2588.775-330.747-2589.118-325.872-2585.173 M-341.471-2571.706c0.216,1.867,1.343,2.825,3.378,2.864
		c1.728,0.098,3.259-0.458,4.595-1.667c1.524-1.567,2.128-3.145,1.814-4.73c-0.454-1.996-1.587-2.969-3.399-2.928
		c-2.188,0.182-3.995,1.305-5.415,3.368C-341.18-2573.716-341.504-2572.685-341.471-2571.706"/>
	<path display="inline" fill="#FFFFFF" d="M-319.63-2586.003l11.054-1.941c0.947,2.896,2.746,6.597,5.404,11.101
		c0.455-2.911,1.184-6.519,2.193-10.827c3.774,0.01,6.513,0.283,8.211,0.828c-2.07,9.702-3.898,18.303-5.485,25.807
		c-2.35,0.817-4.422,1.228-6.221,1.228c-1.726-3.631-3.953-7.855-6.682-12.673l-2.664,12.598c-4.083-0.386-6.694-0.857-7.825-1.417
		c1.113-4.501,2.495-10.59,4.144-18.262l-3.146-0.032L-319.63-2586.003z"/>
	<path display="inline" fill="#FFFFFF" d="M-268.106-2587.901c-0.624,3.287-1.49,6.187-2.602,8.695
		c-1.594-0.174-3.929-0.221-7.007-0.146l-3.985,19.876c-0.91,0.363-3.539-0.143-7.89-1.521l4.154-18.345
		c-2.875,0.02-5.182,0.088-6.924,0.199c0.14-2.748,0.508-5.4,1.102-7.951C-283.41-2587.702-275.693-2587.97-268.106-2587.901"/>
	<path display="inline" fill="#FFFFFF" d="M-256.223-2587.084c-2.271,9.295-4.307,18.071-6.105,26.33
		c-2.627,0.126-5.61,0.179-8.947,0.157c0.916-6.37,2.708-15.117,5.383-26.235C-263.761-2587.381-260.536-2587.467-256.223-2587.084"
		/>
	<path display="inline" fill="#FFFFFF" d="M-245.552-2561.625c-6.443,1.356-10.363-0.695-11.76-6.158
		c-1.015-5.376,0.958-10.547,5.916-15.5c4.979-4.108,11.22-5.498,18.725-4.166c-0.428,3.098-1.035,5.852-1.826,8.264
		c-1.533-0.531-3.896-0.666-7.091-0.398c-3.238,0.658-5.476,2.068-6.712,4.227c-1.433,3.524-1.05,5.875,1.152,7.052
		c1.887,0.36,2.862,0.169,2.926-0.576c0.442-2.179,0.703-3.98,0.787-5.415c4.076,0.047,6.587,0.008,7.532-0.126
		c-0.573,6.475-1.781,11.993-3.619,16.551c-2.966,0.065-5.326-0.178-7.081-0.721
		C-246.17-2559.804-245.819-2560.813-245.552-2561.625"/>
	<path display="inline" fill="#FFFFFF" d="M-209.848-2585.173c1.567,1.523,2.469,3.615,2.708,6.271
		c0.084,1.624-0.067,3.236-0.453,4.836c-2.866,9.471-8.705,14.081-17.517,13.837c-3.63-0.014-6.279-1.556-7.952-4.626
		c-0.734-1.819-0.976-3.808-0.722-5.968c0.294-2.344,1.077-4.733,2.349-7.174c1.524-2.652,3.252-4.699,5.183-6.149
		C-220.191-2588.775-214.722-2589.118-209.848-2585.173 M-225.447-2571.706c0.217,1.867,1.345,2.825,3.38,2.864
		c1.725,0.098,3.256-0.458,4.594-1.667c1.524-1.567,2.13-3.145,1.814-4.73c-0.455-1.996-1.587-2.969-3.399-2.928
		c-2.189,0.182-3.994,1.305-5.414,3.368C-225.157-2573.716-225.48-2572.685-225.447-2571.706"/>
	<path display="inline" fill="#FAC602" d="M-176-2708.734c0,19.802-16.052,35.852-35.854,35.852
		c-19.802,0-35.854-16.05-35.854-35.852c0-19.803,16.052-35.853,35.854-35.853C-192.052-2744.587-176-2728.537-176-2708.734"/>
	<path display="inline" fill="#DD883C" d="M-211.854-2681.949c0,34.597-28.044,62.64-62.64,62.64s-62.64-28.042-62.64-62.64
		c0-34.595,28.044-62.638,62.64-62.638S-211.854-2716.544-211.854-2681.949"/>
	<path display="inline" fill="#F03C7D" d="M-308.506-2628.746c0,19.799-16.052,35.851-35.856,35.851
		c-19.8,0-35.853-16.052-35.853-35.851c0-19.803,16.053-35.854,35.853-35.854C-324.558-2664.601-308.506-2648.549-308.506-2628.746"
		/>
	<path display="inline" fill="#FFFFFF" d="M-193.127-2649.772c0,29.564-23.965,53.528-53.528,53.528
		c-29.566,0-53.528-23.963-53.528-53.528s23.962-53.53,53.528-53.53C-217.093-2703.302-193.127-2679.337-193.127-2649.772"/>
	<path display="inline" fill="#04AAA0" d="M-306.429-2700.118c0,40.75-33.035,73.787-73.786,73.787
		c-40.75,0-73.785-33.038-73.785-73.787c0-40.749,33.035-73.785,73.785-73.785C-339.464-2773.903-306.429-2740.867-306.429-2700.118
		"/>
	<path display="inline" fill="#0A3161" d="M-303.917-2676.751c0-5.723-0.963-10.829-2.866-15.171
		c-1.872-4.275-4.383-8.025-7.462-11.146c-3.021-3.06-6.507-5.648-10.354-7.691c-3.669-1.952-7.475-3.603-11.321-4.91
		c-3.739-1.272-7.454-2.372-11.033-3.264c-3.569-0.893-6.578-1.672-9.207-2.383c-1.45-0.393-2.722-0.784-3.798-1.181
		c1.52-0.687,3.449-1.308,5.754-1.859c3.014-0.719,6.509-1.294,10.39-1.71c3.904-0.418,8.012-0.63,12.216-0.63
		c9.652,0,17.391,0.872,23.006,2.596c4.975,1.53,7.027,3.281,7.291,4.419c0.547,2.322,1.538,3.947,3.024,4.965
		c1.712,1.176,4.543,1.791,8.304-1.966l0.055-0.056c2.405-2.493,4.261-5.335,5.515-8.445c1.26-3.137,1.863-6.672,1.779-10.416
		c0-4.7-4.902-7.088-6.515-7.876c-3.07-1.493-6.82-2.754-11.462-3.859c-4.429-1.053-9.403-1.905-14.781-2.542
		c-5.403-0.634-10.724-0.93-15.849-0.845c-8.783,0.151-16.667,1.034-23.438,2.621c-6.85,1.608-12.713,3.725-17.429,6.298
		c-4.899,2.675-8.726,5.771-11.369,9.21c-2.814,3.666-4.335,7.51-4.523,11.443c-0.189,4.44,0.994,8.316,3.52,11.521
		c2.255,2.862,5.286,5.295,8.998,7.236c3.421,1.792,7.363,3.362,11.711,4.667c4.168,1.255,8.505,2.434,12.883,3.5
		c4.202,1.024,8.413,2.131,12.511,3.29c3.854,1.092,7.313,2.381,10.272,3.828c2.669,1.304,4.784,2.861,6.29,4.625
		c1.202,1.416,1.718,3.073,1.621,5.212c-0.188,4.009-1.271,7.667-3.313,11.186c-2.13,3.675-4.993,7.135-8.503,10.282
		c-3.598,3.223-7.814,6.154-12.524,8.716c-4.794,2.606-9.854,4.845-15.043,6.657c-5.191,1.813-10.511,3.228-15.808,4.204
		c-5.258,0.965-10.292,1.459-14.962,1.459c-1.397,0-3.274-0.09-5.578-0.262c-2.211-0.168-4.564-0.511-6.995-1.018
		c-2.364-0.491-4.734-1.209-7.044-2.133c-2.131-0.853-4.015-1.95-5.592-3.262c-1.415-1.176-2.454-2.58-3.179-4.292
		c-0.662-1.573-0.811-3.571-0.442-5.943c0.314-1.605,1.286-3.416,2.883-5.382c1.814-2.227,4.222-4.38,7.15-6.399
		c3.012-2.071,6.525-3.929,10.44-5.515c3.884-1.574,8.063-2.676,12.461-3.286c2.315-0.34,5.306-0.581,8.888-0.721
		c3.445-0.131,6.945,0.087,10.397,0.655c3.3,0.545,6.322,1.511,8.978,2.868c2.117,1.086,3.483,2.584,4.289,4.712
		c0.757,2.211,2.067,3.399,3.039,4.008c1.352,0.848,2.755,1.229,4.175,1.121c1.726-0.124,3.26-0.972,4.314-2.381
		c0.679-0.903,1.438-2.441,1.197-4.619l-0.017-0.154c-0.93-6.327-3.245-11.427-6.886-15.157c-3.465-3.549-7.596-6.175-12.272-7.803
		c-4.46-1.551-9.216-2.419-14.133-2.58c-4.682-0.146-9.05-0.033-12.887,0.338c-8.376,0.609-15.929,2.188-22.441,4.69
		c-6.555,2.521-12.167,5.712-16.687,9.488c-4.606,3.842-8.193,8.253-10.665,13.113c-2.489,4.898-3.835,9.976-4.001,15.125
		c-0.161,6.553,0.973,12.356,3.379,17.245c2.423,4.929,6.013,9.051,10.672,12.255c4.487,3.084,9.934,5.405,16.199,6.904
		c6.07,1.449,12.904,2.221,20.317,2.296c0.36,0.006,0.718,0.007,1.077,0.007c7.538,0,14.879-0.75,21.838-2.226
		c7.267-1.546,14.173-3.747,20.532-6.544c6.385-2.813,12.256-6.251,17.455-10.226c5.212-3.989,9.769-8.469,13.539-13.316
		c3.814-4.906,6.799-10.246,8.87-15.87C-304.977-2664.712-303.917-2670.676-303.917-2676.751"/>
	<path display="inline" fill="#0A3161" d="M-244.146-2681.771l0.188-0.587c1.652-5.195-3.657-8.068-7.955-8.068
		c-1.497,0-2.885,0.329-4.13,0.981c-3.745,1.813-6.269,6.748-11.192,16.37c-5.885,11.504-14.371,28.099-24.796,36.065
		c0.457-1.414,1.123-3.289,2.089-5.774c0.153-0.393,0.241-0.62,0.301-0.792l11.928-29.717l0.062-0.151l0.048-0.155
		c0.732-2.297,0.632-4.475-0.279-6.126c-1.036-1.883-3.036-2.918-5.628-2.918c-3.515,0-6.404,1.241-8.577,3.69
		c-1.768,1.992-2.642,4.382-3.372,6.669l-10.624,27.689c-0.914,2.242-2.269,6.213-3.111,10.116
		c-1.258,5.809-1.104,10.085,0.453,12.705c1.206,2.023,3.253,3.095,5.92,3.095c4.144,0,9.571-2.519,16.771-7.829
		c-0.669,4.244-0.164,6.812,1.5,8.152c1.007,0.891,2.532,1.358,4.422,1.358c3.081,0,8.34-1.3,10.196-4.883l0.034-0.065l0.034-0.07
		c0.596-1.24,1.058-2.979,1.827-5.857c2.495-9.35,7.685-28.806,23.531-53.339L-244.146-2681.771z"/>
	<path display="inline" fill="#0A3161" d="M-211.616-2670.478c-1.319-2.302-4.199-3.79-7.34-3.79c-3.932,0-8.529,1.739-13.334,5.038
		c0.064-1.601-0.485-2.932-1.618-3.855c-1.122-0.916-2.751-1.378-4.846-1.378c-3.295,0-5.603,1.233-7.488,3.999l-0.296,0.434
		l-0.193,0.456c-3.033,7.256-4.583,12.158-6.378,17.834c-0.199,0.624-0.398,1.258-0.605,1.907
		c-1.795,5.644-4.49,12.392-6.275,16.857c-1.073,2.686-1.784,4.464-2.099,5.462c-0.617,1.93-0.603,3.778,0.037,5.202
		c0.871,1.939,2.846,3.003,5.56,3.003c1.652,0,3.404-0.689,4.931-1.94c0.976-0.799,1.868-1.828,2.643-3.058
		c1.142-1.805,1.803-3.635,2.052-4.412c0.345-0.97,0.68-1.943,1.005-2.885c2.304-6.682,4.48-12.993,10.149-19.639l0.095-0.115
		l0.09-0.115c0.785-1.028,1.956-2.323,3.294-3.669c-0.244,0.51-0.458,1.035-0.625,1.568c-1.115,3.504,0.412,6.047,3.628,6.047
		c2.785,0,5.945-2.331,10.909-8.04c2.058-2.367,5.819-7.025,6.881-9.488C-210.627-2666.936-210.689-2668.863-211.616-2670.478"/>
</g>
<path fill="#F03C7D" d="M141,275.499C141,462.304-10.437,613.74-197.239,613.74c-186.806,0-338.24-151.437-338.24-338.241
	c0-186.803,151.435-338.239,338.24-338.239C-10.437-62.74,141,88.696,141,275.499"/>
</svg>
