SECTOR,FACTURACION (RD$ MM),FACTURACION (GWH),PERIODO
Distrito Sur,1044.741544,117.926956,01/01/2017
Distrito Norte,316.5018569,40.147631,01/01/2017
Sector Noroeste,292.419445,37.375956,01/01/2017
Sector Villa Altagracia,113.8817568,16.229775,01/01/2017
Sector San Cristobal,203.5796656,26.90881,01/01/2017
Sector Bani,87.29422987,11.289956,01/01/2017
Sector Azua,69.65421108,8.882104,01/01/2017
Sector San Juan,68.56899251,9.87257,01/01/2017
Sector Barahona,76.06572707,9.630608,01/01/2017
Sector Neyba,24.2426142,3.00721,01/01/2017
Distrito Sur,1023.901355,111.982938,01/02/2017
Distrito Norte,310.7876756,38.258882,01/02/2017
Sector Noroeste,312.3740357,36.24979,01/02/2017
Sector Villa Altagracia,131.2192493,15.857719,01/02/2017
Sector San Cristobal,199.4378906,25.966844,01/02/2017
Sector Bani,82.77445879,10.534109,01/02/2017
Sector Azua,63.11905769,7.985447,01/02/2017
Sector San Juan,66.65928177,9.402119,01/02/2017
Sector Barahona,72.7463735,9.511504,01/02/2017
Sector Neyba,23.56234893,2.942165,01/02/2017
Distrito Sur,1080.524423,115.115948,01/03/2017
Distrito Norte,313.1248494,38.667512,01/03/2017
Sector Noroeste,308.8168548,42.765571,01/03/2017
Sector Villa Altagracia,119.2568234,16.159667,01/03/2017
Sector San Cristobal,203.6644567,26.523381,01/03/2017
Sector Bani,85.22371467,10.923116,01/03/2017
Sector Azua,66.55807993,8.690812,01/03/2017
Sector San Juan,68.67778293,9.744234,01/03/2017
Sector Barahona,91.19795911,9.514737,01/03/2017
Sector Neyba,24.86200842,3.041936,01/03/2017
Distrito Sur,1102.006593,122.222404,01/04/2017
Distrito Norte,330.4425599,41.303519,01/04/2017
Sector Noroeste,331.3811615,42.955225,01/04/2017
Sector Villa Altagracia,120.9807071,16.789084,01/04/2017
Sector San Cristobal,212.4385645,28.103929,01/04/2017
Sector Bani,85.19280388,11.009389,01/04/2017
Sector Azua,71.404236,9.541278,01/04/2017
Sector San Juan,67.05703243,9.629196,01/04/2017
Sector Barahona,52.58025597,8.952525,01/04/2017
Sector Neyba,25.10534284,3.118411,01/04/2017
Distrito Sur,1092.986071,120.324384,01/05/2017
Distrito Norte,319.6057756,40.106702,01/05/2017
Sector Noroeste,303.4985838,37.470815,01/05/2017
Sector Villa Altagracia,153.3501514,21.23163,01/05/2017
Sector San Cristobal,205.2433888,26.815697,01/05/2017
Sector Bani,86.23102217,10.914433,01/05/2017
Sector Azua,62.88187093,8.081851,01/05/2017
Sector San Juan,69.32287046,9.956258,01/05/2017
Sector Barahona,69.64859713,8.990158,01/05/2017
Sector Neyba,25.66875268,3.198008,01/05/2017
Distrito Sur,1221.565281,135.347248,01/06/2017
Distrito Norte,372.6157352,45.860352,01/06/2017
Sector Noroeste,346.3271265,42.671153,01/06/2017
Sector Villa Altagracia,134.0028444,18.009227,01/06/2017
Sector San Cristobal,231.4389528,30.527072,01/06/2017
Sector Bani,85.12786719,11.44516,01/06/2017
Sector Azua,66.67642239,8.707774,01/06/2017
Sector San Juan,73.46312836,10.336328,01/06/2017
Sector Barahona,77.70252196,9.450733,01/06/2017
Sector Neyba,24.26162293,2.98179,01/06/2017
Distrito Sur,1259.094663,136.142384,01/07/2017
Distrito Norte,371.4388466,45.329176,01/07/2017
Sector Noroeste,346.8559333,43.143157,01/07/2017
Sector Villa Altagracia,137.7654881,18.126155,01/07/2017
Sector San Cristobal,254.3346525,33.946159,01/07/2017
Sector Bani,93.86788001,12.01061,01/07/2017
Sector Azua,68.97281282,8.867383,01/07/2017
Sector San Juan,73.80424892,10.373783,01/07/2017
Sector Barahona,71.97040205,9.607775,01/07/2017
Sector Neyba,26.20824577,3.237064,01/07/2017
Distrito Sur,1297.856407,141.66709,01/08/2017
Distrito Norte,391.3493753,47.895572,01/08/2017
Sector Noroeste,346.1322445,44.206758,01/08/2017
Sector Villa Altagracia,132.3930033,17.961245,01/08/2017
Sector San Cristobal,262.7629347,35.207524,01/08/2017
Sector Bani,99.60020664,12.378021,01/08/2017
Sector Azua,70.76022365,9.181611,01/08/2017
Sector San Juan,76.66954355,10.700652,01/08/2017
Sector Barahona,74.94232279,9.783262,01/08/2017
Sector Neyba,28.12045522,3.455777,01/08/2017
Distrito Sur,1279.464155,138.567809,01/09/2017
Distrito Norte,395.097266,48.536076,01/09/2017
Sector Noroeste,343.5833266,43.506022,01/09/2017
Sector Villa Altagracia,134.4348841,18.429834,01/09/2017
Sector San Cristobal,274.0180212,37.11874,01/09/2017
Sector Bani,100.4679641,12.627563,01/09/2017
Sector Azua,76.48140748,9.389289,01/09/2017
Sector San Juan,76.10187406,10.681505,01/09/2017
Sector Barahona,79.2548023,10.161931,01/09/2017
Sector Neyba,29.56594193,3.605401,01/09/2017
Distrito Sur,1261.568766,137.623454,01/10/2017
Distrito Norte,382.8375428,46.063222,01/10/2017
Sector Noroeste,342.9293684,43.668806,01/10/2017
Sector Villa Altagracia,133.8010071,18.447762,01/10/2017
Sector San Cristobal,326.9959741,36.426457,01/10/2017
Sector Bani,93.70925357,11.7592,01/10/2017
Sector Azua,69.08399843,8.338549,01/10/2017
Sector San Juan,80.37667116,10.467904,01/10/2017
Sector Barahona,77.92243471,9.890197,01/10/2017
Sector Neyba,38.60376333,4.220684,01/10/2017
Distrito Sur,1232.248158,136.254177,01/11/2017
Distrito Norte,373.894735,45.030129,01/11/2017
Sector Noroeste,339.5482225,43.566721,01/11/2017
Sector Villa Altagracia,133.7228291,18.526623,01/11/2017
Sector San Cristobal,281.0890307,37.915767,01/11/2017
Sector Bani,91.12111692,11.637468,01/11/2017
Sector Azua,69.55328433,8.278183,01/11/2017
Sector San Juan,74.99829273,10.286892,01/11/2017
Sector Barahona,72.34424388,9.460645,01/11/2017
Sector Neyba,27.23240378,3.325273,01/11/2017
Distrito Sur,1174.518524,128.715066,01/12/2017
Distrito Norte,371.920374,45.718055,01/12/2017
Sector Noroeste,320.2022946,40.655449,01/12/2017
Sector Villa Altagracia,130.7100617,18.142814,01/12/2017
Sector San Cristobal,288.2744035,38.885413,01/12/2017
Sector Bani,86.90667702,11.062602,01/12/2017
Sector Azua,75.9586048,7.878844,01/12/2017
Sector San Juan,70.71768753,9.833219,01/12/2017
Sector Barahona,81.40146343,10.505324,01/12/2017
Sector Neyba,25.36278731,3.096899,01/12/2017
Distrito Sur,1067.86715,115.208875,01/01/2018
Distrito Norte,328.6364632,39.777502,01/01/2018
Sector Noroeste,302.7850284,38.349689,01/01/2018
Sector Villa Altagracia,129.3039622,17.437751,01/01/2018
Sector San Cristobal,262.656207,34.565826,01/01/2018
Sector Bani,90.86013393,11.562383,01/01/2018
Sector Azua,59.09480806,9.140423,01/01/2018
Sector San Juan,73.76979331,10.305705,01/01/2018
Sector Barahona,74.45695026,9.621119,01/01/2018
Sector Neyba,29.60115294,3.596566,01/01/2018
Distrito Sur,1034.484188,112.747465,01/02/2018
Distrito Norte,310.4657446,38.02409,01/02/2018
Sector Noroeste,301.9135987,38.182043,01/02/2018
Sector Villa Altagracia,125.1413293,17.45457,01/02/2018
Sector San Cristobal,250.0652532,33.53955,01/02/2018
Sector Bani,85.7883472,10.945888,01/02/2018
Sector Azua,68.10316329,8.543116,01/02/2018
Sector San Juan,72.25951117,10.008048,01/02/2018
Sector Barahona,62.14869519,8.032866,01/02/2018
Sector Neyba,28.46559088,3.436087,01/02/2018
Distrito Sur,959.1933149,102.269643,01/03/2018
Distrito Norte,306.3363255,37.338322,01/03/2018
Sector Noroeste,275.2559698,35.062301,01/03/2018
Sector Villa Altagracia,117.5979781,16.205461,01/03/2018
Sector San Cristobal,248.8729343,32.522916,01/03/2018
Sector Bani,82.36203791,10.570245,01/03/2018
Sector Azua,75.76761528,9.724413,01/03/2018
Sector San Juan,67.22909085,9.277505,01/03/2018
Sector Barahona,67.59076371,8.854456,01/03/2018
Sector Neyba,28.13752838,3.338651,01/03/2018
Distrito Sur,1096.767743,118.982072,01/04/2018
Distrito Norte,407.3770547,48.160412,01/04/2018
Sector Noroeste,349.8326319,44.678237,01/04/2018
Sector Villa Altagracia,100.33895,13.611854,01/04/2018
Sector San Cristobal,288.3008417,37.757995,01/04/2018
Sector Bani,95.50823956,12.105479,01/04/2018
Sector Azua,86.5130394,10.920098,01/04/2018
Sector San Juan,74.06322294,10.388128,01/04/2018
Sector Barahona,75.77489028,9.801424,01/04/2018
Sector Neyba,31.196749,3.809011,01/04/2018
Distrito Sur,1181.92253,126.999472,01/05/2018
Distrito Norte,358.2529625,44.425085,01/05/2018
Sector Noroeste,368.6251168,47.205409,01/05/2018
Sector Villa Altagracia,110.5972045,14.430914,01/05/2018
Sector San Cristobal,296.86354,38.721288,01/05/2018
Sector Bani,95.50410623,12.045349,01/05/2018
Sector Azua,79.06303352,10.026042,01/05/2018
Sector San Juan,78.27172459,10.891574,01/05/2018
Sector Barahona,79.03570578,10.273309,01/05/2018
Sector Neyba,32.80117528,3.937561,01/05/2018
Distrito Sur,1267.755339,131.730585,01/06/2018
Distrito Norte,423.8565274,50.755207,01/06/2018
Sector Noroeste,397.4421265,49.982563,01/06/2018
Sector Villa Altagracia,108.0569711,14.657978,01/06/2018
Sector San Cristobal,299.1366919,38.681841,01/06/2018
Sector Bani,102.122848,12.496797,01/06/2018
Sector Azua,77.44129796,9.639091,01/06/2018
Sector San Juan,80.56234234,11.156125,01/06/2018
Sector Barahona,80.81344029,10.320694,01/06/2018
Sector Neyba,33.32198039,3.964247,01/06/2018
Distrito Sur,1279.32644,136.540779,01/07/2018
Distrito Norte,441.1490192,52.680354,01/07/2018
Sector Noroeste,411.508856,51.534454,01/07/2018
Sector Villa Altagracia,113.1045192,15.281159,01/07/2018
Sector San Cristobal,311.0037046,40.733619,01/07/2018
Sector Bani,103.8711469,12.973615,01/07/2018
Sector Azua,78.80217635,9.903829,01/07/2018
Sector San Juan,82.51633183,11.397412,01/07/2018
Sector Barahona,83.32455506,10.250113,01/07/2018
Sector Neyba,35.25101826,4.187174,01/07/2018
Distrito Sur,1316.017503,138.067151,01/08/2018
Distrito Norte,446.9566735,53.562689,01/08/2018
Sector Noroeste,414.7890898,51.937044,01/08/2018
Sector Villa Altagracia,116.0854167,15.686655,01/08/2018
Sector San Cristobal,320.4029565,41.465044,01/08/2018
Sector Bani,109.6434012,13.575592,01/08/2018
Sector Azua,80.28478058,10.061501,01/08/2018
Sector San Juan,83.63301344,11.474886,01/08/2018
Sector Barahona,88.20144799,10.984656,01/08/2018
Sector Neyba,34.72766994,4.202243,01/08/2018
Distrito Sur,1247.910991,133.146884,01/09/2018
Distrito Norte,433.8923171,52.174372,01/09/2018
Sector Noroeste,408.0166583,51.531421,01/09/2018
Sector Villa Altagracia,114.8545122,15.623487,01/09/2018
Sector San Cristobal,314.1231354,40.873959,01/09/2018
Sector Bani,109.4704425,13.654908,01/09/2018
Sector Azua,85.16616446,10.456269,01/09/2018
Sector San Juan,81.66422899,11.219471,01/09/2018
Sector Barahona,84.10961616,10.793654,01/09/2018
Sector Neyba,35.16417846,4.19311,01/09/2018
Distrito Sur,1222.598138,130.670284,01/10/2018
Distrito Norte,415.9275236,49.996497,01/10/2018
Sector Noroeste,381.838176,48.713669,01/10/2018
Sector Villa Altagracia,113.926347,15.199973,01/10/2018
Sector San Cristobal,308.2912989,39.559028,01/10/2018
Sector Bani,107.5876023,13.804972,01/10/2018
Sector Azua,77.22908795,9.631697,01/10/2018
Sector San Juan,78.12167774,10.880225,01/10/2018
Sector Barahona,82.87234016,10.663951,01/10/2018
Sector Neyba,33.78348941,3.992182,01/10/2018
Distrito Sur,1219.537164,130.837831,01/11/2018
Distrito Norte,423.1012036,51.095654,01/11/2018
Sector Noroeste,396.0259438,50.418838,01/11/2018
Sector Villa Altagracia,119.3158852,15.959784,01/11/2018
Sector San Cristobal,318.9916453,41.568959,01/11/2018
Sector Bani,125.5759555,16.312561,01/11/2018
Sector Azua,83.20392751,10.226392,01/11/2018
Sector San Juan,79.5922273,10.916387,01/11/2018
Sector Barahona,80.24949229,10.359749,01/11/2018
Sector Neyba,33.19126888,3.97009,01/11/2018
